…
``` r
emission_sector<-datos%>%filter(Calendar_Year %in% c(2018,2019,2020),Second_Tier_Authority=="Surrey")%>%
               group_by(Calendar_Year,Second_Tier_Authority,LA_GHG_Sector)%>%
               summarise(Total_CO2=sum(Territorial_Emissions_Kt_Co2))  
```

    ## `summarise()` has grouped output by 'Calendar_Year', 'Second_Tier_Authority'.
    ## You can override using the `.groups` argument.

``` r
emission_sector
```

    ## # A tibble: 24 × 4
    ## # Groups:   Calendar_Year, Second_Tier_Authority [3]
    ##    Calendar_Year Second_Tier_Authority LA_GHG_Sector    Total_CO2
    ##            <int> <chr>                 <chr>                <dbl>
    ##  1          2018 Surrey                Agriculture           164.
    ##  2          2018 Surrey                Commercial            575.
    ##  3          2018 Surrey                Domestic             2013.
    ##  4          2018 Surrey                Industry              436.
    ##  5          2018 Surrey                LULUCF               -218.
    ##  6          2018 Surrey                Public Sector         296.
    ##  7          2018 Surrey                Transport            3094.
    ##  8          2018 Surrey                Waste management      182.
    ##  9          2019 Surrey                Agriculture           160.
    ## 10          2019 Surrey                Commercial            495.
    ## # … with 14 more rows
…
    ## `summarise()` has grouped output by 'Calendar_Year', 'LA_GHG_Sector'. You can
    ## override using the `.groups` argument.

``` r
#Create a new variable with the type of Energy consumed, Electricity, Gas, Fuel or Others

Energy_filtered<-Energy_Type%>%mutate(electricity_type=ifelse(grepl("Electricity",LA_GH_SubSector)==TRUE,"Electricity",
                                            ifelse(grepl("Gas",LA_GH_SubSector)==TRUE,"Gas", 
                                                   ifelse(LA_GH_SubSector %in% c("Road Transport (A roads)",  "Road Transport (Minor roads)","Road Transport (Motorways)"),"Fuel", ifelse(grepl("'Other'",LA_GH_SubSector)==TRUE,"Others_1","Others_2" )))))

Energy_filtered
```

    ## # A tibble: 93 × 5
    ## # Groups:   Calendar_Year, LA_GHG_Sector [24]
    ##    Calendar_Year LA_GHG_Sector LA_GH_SubSector         Total_energy_Type elect…¹
    ##            <int> <chr>         <chr>                               <dbl> <chr>  
    ##  1          2018 Agriculture   Agriculture 'Other'                 24.2  Others…
    ##  2          2018 Agriculture   Agriculture Electricity              9.32 Electr…
    ##  3          2018 Agriculture   Agriculture Gas                     19.9  Gas    
    ##  4          2018 Agriculture   Agriculture Livestock               85.2  Others…
    ##  5          2018 Agriculture   Agriculture Soils                   25.4  Others…
    ##  6          2018 Commercial    Commercial 'Other'                   4.73 Others…
    ##  7          2018 Commercial    Commercial Electricity             387.   Electr…
    ##  8          2018 Commercial    Commercial Gas                     184.   Gas    
    ##  9          2018 Domestic      Domestic 'Other'                   103.   Others…
    ## 10          2018 Domestic      Domestic Electricity               519.   Electr…
    ## # … with 83 more rows, and abbreviated variable name ¹​electricity_type
…
``` r
EnerAgg<-enerFilt%>%group_by(Calendar_Year,LA_GHG_Sector,Energy_Type)%>%summarise(Total=sum(Total_energy_Type))
EnerAgg
```

    ## # A tidytable: 66 × 4
    ## # Groups:      Calendar_Year, LA_GHG_Sector
    ##    Calendar_Year LA_GHG_Sector Energy_Type  Total
    ##            <int> <chr>         <chr>        <dbl>
    ##  1          2018 Agriculture   'Other'      24.2 
    ##  2          2018 Agriculture   Electricity   9.32
    ##  3          2018 Agriculture   Gas          19.9 
    ##  4          2018 Agriculture   Livestock    85.2 
    ##  5          2018 Agriculture   Soils        25.4 
    ##  6          2018 Commercial    'Other'       4.73
    ##  7          2018 Commercial    Electricity 387.  
    ##  8          2018 Commercial    Gas         184.  
    ##  9          2018 Domestic      'Other'     103.  
    ## 10          2018 Domestic      Electricity 519.  
    ## # … with 56 more rows
…
